…
You have two objectives in this section:

Select the year and the twelve month variables from the weather
dataset. We do not need the others (J-D, D-N, DJF, etc.) for this
assignment. Hint: use select() function.

Convert the dataframe from wide to ‘long’ format. Hint: use
gather() or pivot_longer() function. Name the new dataframe as
tidyweather, name the variable containing the name of the month as
month, and the temperature deviation values as delta.

weather %>%
  select(1:13)

## # A tibble: 143 × 13
##     Year   Jan   Feb   Mar   Apr   May   Jun   Jul   Aug   Sep   Oct   Nov   Dec
##    <dbl> <dbl> <dbl> <dbl> <dbl> <dbl> <dbl> <dbl> <dbl> <dbl> <dbl> <dbl> <dbl>
##  1  1880 -0.39 -0.53 -0.23 -0.3  -0.05 -0.18 -0.21 -0.25 -0.24 -0.3  -0.43 -0.42
##  2  1881 -0.3  -0.24 -0.05 -0.02  0.05 -0.33  0.1  -0.04 -0.28 -0.44 -0.36 -0.23
##  3  1882  0.26  0.21  0.02 -0.3  -0.23 -0.28 -0.28 -0.14 -0.24 -0.51 -0.33 -0.68
##  4  1883 -0.58 -0.66 -0.15 -0.3  -0.25 -0.11 -0.05 -0.22 -0.34 -0.16 -0.44 -0.15
##  5  1884 -0.16 -0.11 -0.64 -0.59 -0.36 -0.41 -0.41 -0.51 -0.45 -0.44 -0.57 -0.47
##  6  1885 -1.01 -0.45 -0.23 -0.49 -0.58 -0.45 -0.34 -0.41 -0.4  -0.37 -0.38 -0.11
##  7  1886 -0.75 -0.84 -0.71 -0.37 -0.34 -0.37 -0.14 -0.43 -0.33 -0.31 -0.4  -0.22
##  8  1887 -1.08 -0.71 -0.44 -0.38 -0.25 -0.2  -0.24 -0.54 -0.21 -0.49 -0.27 -0.43
##  9  1888 -0.49 -0.61 -0.64 -0.22 -0.15 -0.03  0    -0.21 -0.2  -0.03 -0.01 -0.24
## 10  1889 -0.28  0.29 -0.02  0.16 -0.04 -0.07 -0.08 -0.2  -0.3  -0.41 -0.62 -0.55
## # … with 133 more rows
## # ℹ Use `print(n = ...)` to see more rows

tidyweather <- weather %>%
  pivot_longer(
    cols = 2:13,
    names_to="Month",
    values_to="delta"
    ) %>%
  select(Year, Month, delta)

tidyweather

## # A tibble: 1,716 × 3
##     Year Month delta
##    <dbl> <chr> <dbl>
##  1  1880 Jan   -0.39
##  2  1880 Feb   -0.53
##  3  1880 Mar   -0.23
##  4  1880 Apr   -0.3 
##  5  1880 May   -0.05
##  6  1880 Jun   -0.18
##  7  1880 Jul   -0.21
##  8  1880 Aug   -0.25
##  9  1880 Sep   -0.24
## 10  1880 Oct   -0.3 
## # … with 1,706 more rows
## # ℹ Use `print(n = ...)` to see more rows
…
